{
    "@context": "\/api\/contexts\/MoodEstimation",
    "@id": "\/api\/mood_estimations\/1134ed0d-c81b-4dfd-96bb-c8c168115d54",
    "@type": "MoodEstimation",
    "id": "1134ed0d-c81b-4dfd-96bb-c8c168115d54",
    "moodPoints": 4,
    "estimatedAt": "2020-01-01T00:00:00+00:00"
}
